{
    "id": "4036691751515103080",
    "display": "Bruce Wayne",
    "shortDisplay": "964501",
    "image": {
        "id": "4036693469233586024",
        "name": "Capture d’écran 2018-04-25 à 08.33.53",
        "contentType": "image/png",
        "length": 260908,
        "url": "https://cyclos.nantes.somoney.pro/somoneyapp/api/images/content/FYgqFhHdq8xLsLPTSjBKzYdsXXW1xlvGEZykyzAaM04ZvxuesIL8KaI4XfymaTFg_345x397.png",
        "width": 345,
        "height": 397
    },
    "role": "member",
    "name": "Bruce Wayne",
    "username": "964501",
    "email": "part@mail.com",
    "customValues": [
        {
            "id": "4036670863746965352",
            "enumeratedValues": [
                {
                    "id": "4036693600498524008",
                    "value": "M.",
                    "internalName": "man"
                }
            ],
            "field": {
                "id": "4036693601035394920",
                "name": "Civilité",
                "internalName": "gender",
                "type": "singleSelection",
                "control": "radio",
                "kind": "user"
            },
            "hidden": false
        },
        {
            "id": "4036670862673223528",
            "stringValue": "Bruce",
            "field": {
                "id": "4036693596471992168",
                "name": "Prénom",
                "internalName": "firstname",
                "type": "string",
                "control": "text",
                "kind": "user"
            },
            "hidden": false
        },
        {
            "id": "4036670863478529896",
            "stringValue": "Wayne",
            "field": {
                "id": "4036693611504377704",
                "name": "Nom",
                "internalName": "lastname",
                "type": "string",
                "control": "text",
                "kind": "user"
            },
            "hidden": false
        },
        {
            "id": "4036670865894449000",
            "dateValue": "2000-03-13T00:00:00.000+01:00",
            "field": {
                "id": "4036693599693217640",
                "name": "Date de naissance",
                "internalName": "birthday",
                "type": "date",
                "control": "text",
                "kind": "user"
            },
            "hidden": false
        },
        {
            "id": "4036670866162884456",
            "stringValue": "https://moncompte.nantes.somoney.pro/legal_documents/4036691768158101352/idattachment.jpg",
            "field": {
                "id": "4036693599961653096",
                "name": "Pièce d\"\"identité",
                "internalName": "idattachment",
                "type": "url",
                "control": "text",
                "kind": "user"
            },
            "hidden": false
        },
        {
            "id": "4036670862136352616",
            "booleanValue": true,
            "field": {
                "id": "4036693602377572200",
                "name": "Je souhaites être informé des actualités",
                "internalName": "optinnewsletter",
                "type": "boolean",
                "control": "checkbox",
                "kind": "user"
            },
            "hidden": false
        },
        {
            "id": "4036670862941658984",
            "booleanValue": false,
            "field": {
                "id": "4036693595935121256",
                "name": "Je souhaite adhérer à l\"\"association",
                "internalName": "membershipsonantaise",
                "type": "boolean",
                "control": "checkbox",
                "kind": "user"
            },
            "hidden": false
        },
        {
            "id": "4036670791000956776",
            "booleanValue": true,
            "field": {
                "id": "4036693599156346728",
                "name": "Informations commerciales",
                "internalName": "commercialinfo",
                "type": "boolean",
                "control": "checkbox",
                "kind": "user"
            },
            "hidden": false
        },
        {
            "id": "4036670863210094440",
            "booleanValue": true,
            "field": {
                "id": "4036693595666685800",
                "name": "Email validé",
                "internalName": "validatedemail",
                "type": "boolean",
                "control": "checkbox",
                "kind": "user"
            },
            "hidden": false
        },
        {
            "id": "4036670872068464488",
            "booleanValue": true,
            "field": {
                "id": "4036693598619475816",
                "name": "Est actif",
                "internalName": "isactive",
                "type": "boolean",
                "control": "checkbox",
                "kind": "user"
            },
            "hidden": false
        },
        {
            "id": "4036670872336899944",
            "booleanValue": false,
            "field": {
                "id": "4036693612309684072",
                "name": "En attente de validation",
                "internalName": "needsValidation",
                "type": "boolean",
                "control": "checkbox",
                "kind": "user"
            },
            "hidden": false
        },
        {
            "id": "4036670790732521320",
            "booleanValue": false,
            "field": {
                "id": "4036693611772813160",
                "name": "Compte bloqué",
                "internalName": "accountlock",
                "type": "boolean",
                "control": "checkbox",
                "kind": "user"
            },
            "hidden": false
        },
        {
            "id": "4036670795564359528",
            "booleanValue": false,
            "field": {
                "id": "4036693610967506792",
                "name": "Souhaite quitter",
                "internalName": "leavecall",
                "type": "boolean",
                "control": "checkbox",
                "kind": "user"
            },
            "hidden": false
        },
        {
            "id": "4036670865357578088",
            "stringValue": "78fe-b49e-939a-1f9e",
            "field": {
                "id": "4036693612041248616",
                "name": "Id lemonway",
                "internalName": "lemonwayId",
                "type": "string",
                "control": "text",
                "kind": "user"
            },
            "hidden": false
        },
        {
            "id": "4036670891395817320",
            "stringValue": "4036691750709796712,4036691762789392232",
            "field": {
                "id": "4036693610699071336",
                "name": "Favoris",
                "internalName": "favorites",
                "type": "string",
                "control": "text",
                "kind": "user"
            },
            "hidden": false
        },
        {
            "id": "4036670790732521328",
            "booleanValue": false,
            "field": {
                "id": "4036693604793491304",
                "name": "Crédit Atout Utilisé",
                "internalName": "ze_carte_used",
                "type": "boolean",
                "control": "checkbox",
                "kind": "user"
            },
            "hidden": false
        }
    ],
    "group": {
        "id": "4036693600230088552",
        "name": "Particulier",
        "internalName": "individual"
    },
    "groupSet": {
        "id": "4036693600498524008",
        "name": "Adherent",
        "internalName": "member"
    },
    "additionalImages": [],
    "addresses": [
        {
            "id": "4036691755273199464",
            "name": "address",
            "addressLine1": "12 rue des iguanes",
            "zip": "44540",
            "city": "Bonnoeuvre",
            "location": {
                "latitude": 47.527808,
                "longitude": -1.238905
            },
            "defaultAddress": true,
            "hidden": false
        }
    ],
    "phones": [
        {
            "id": "4036691719034412904",
            "name": "phone",
            "number": "02 40 41 42 43",
            "type": "landLine",
            "normalizedNumber": "+33240414243",
            "verified": false,
            "enabledForSms": false,
            "hidden": false
        }
    ],
    "contactInfos": [],
    "activationDate": "2018-03-13T19:44:28.632+01:00",
    "online": true,
    "lastLogin": "2019-04-04T15:45:19.703+02:00",
    "firstLogin": "2018-03-15T19:37:37.714+01:00",
    "permissions": {
        "profile": {
            "editProfile": true,
            "manageAddresses": true,
            "manageAddressesPrivacy": true,
            "managePhones": true,
            "managePhonesPrivacy": true,
            "manageImages": true,
            "manageContactInfos": false,
            "canCreateAddress": false,
            "canCreateLandLine": false,
            "canCreateMobile": true,
            "canCreateImage": false,
            "maxAddresses": 1,
            "maxMobiles": 1,
            "maxLandLines": 1,
            "maxImages": 1,
            "addressAvailability": "required",
            "mobileAvailability": "optional",
            "landLineAvailability": "optional",
            "profileImageAvailability": "optional"
        },
        "contact": {
            "add": false,
            "remove": false
        },
        "marketplace": {
            "viewAdvertisements": false,
            "manageAdvertisements": false,
            "viewWebshop": false,
            "manageWebshop": false,
            "viewPurchases": false,
            "viewSales": false
        },
        "accounts": [
            {
                "id": "4036691743998910312",
                "type": {
                    "id": "4036693601035394920",
                    "name": "Compte de particulier",
                    "internalName": "individual"
                },
                "currency": {
                    "id": "4036693601572265832",
                    "name": "MLC",
                    "internalName": "mlc",
                    "symbol": "MLC",
                    "suffix": "MLC",
                    "decimalDigits": 2
                }
            }
        ],
        "payment": {
            "asUserToSelf": false,
            "asUserToSystem": false,
            "asUserToUser": true,
            "systemToUser": true,
            "userToUser": false
        },
        "records": [],
        "operations": [],
        "tokens": [
            {
                "id": "4036693603451314024",
                "name": "Code QR",
                "internalName": "codeqr",
                "physicalType": "qrCode",
                "mask": "????????????????????????????????"
            },
            {
                "id": "4036693599693217640",
                "name": "Carte NFC",
                "internalName": "nfccard",
                "physicalType": "nfcTag",
                "mask": "#### #### #### ####"
            }
        ],
        "personalizeNfcTokens": []
    },
    "brokers": []
}