{
    "emailRequired": true,
    "profileFieldActions": {
        "birthday": {
            "edit": true,
            "managePrivacy": true
        },
        "favorites": {
            "edit": true,
            "managePrivacy": true
        },
        "firstname": {
            "edit": true,
            "managePrivacy": true
        },
        "gender": {
            "edit": true,
            "managePrivacy": true
        },
        "keywords": {
            "edit": true,
            "managePrivacy": true
        },
        "isactive": {
            "edit": true,
            "managePrivacy": true
        },
        "lemonwayId": {
            "edit": true,
            "managePrivacy": true
        },
        "validatedemail": {
            "edit": true,
            "managePrivacy": true
        },
        "aboutMe": {
            "edit": true,
            "managePrivacy": true
        },
        "commercialinfo": {
            "edit": true,
            "managePrivacy": true
        },
        "mailpro": {
            "edit": true,
            "managePrivacy": true
        },
        "idattachment": {
            "edit": true,
            "managePrivacy": true
        },
        "email": {
            "edit": true,
            "managePrivacy": true
        },
        "membershipsonantaise": {
            "edit": true,
            "managePrivacy": true
        },
        "leavecall": {
            "edit": true,
            "managePrivacy": true
        },
        "image": {
            "edit": true,
            "managePrivacy": true
        },
        "website": {
            "edit": true,
            "managePrivacy": true
        },
        "address": {
            "edit": true,
            "managePrivacy": true
        },
        "needsValidation": {
            "edit": true,
            "managePrivacy": true
        },
        "catpro": {
            "edit": true,
            "managePrivacy": true
        },
        "accountNumber": {
            "edit": false,
            "managePrivacy": false
        },
        "lastname": {
            "edit": true,
            "managePrivacy": true
        },
        "optinnewsletter": {
            "edit": true,
            "managePrivacy": true
        },
        "accountlock": {
            "edit": true,
            "managePrivacy": true
        },
        "phone": {
            "edit": true,
            "managePrivacy": true
        },
        "name": {
            "edit": true,
            "managePrivacy": true
        },
        "comment": {
            "edit": true,
            "managePrivacy": true
        },
        "username": {
            "edit": true,
            "managePrivacy": true
        }
    },
    "customFields": [
        {
            "id": "4036693601035394920",
            "name": "Civilité",
            "internalName": "gender",
            "type": "singleSelection",
            "control": "radio",
            "kind": "user",
            "required": false,
            "possibleValueCategories": [],
            "hasValuesList": true,
            "possibleValues": [
                {
                    "id": "4036693600498524008",
                    "value": "M.",
                    "internalName": "man"
                },
                {
                    "id": "4036693599693217640",
                    "value": "Mme",
                    "internalName": "female"
                }
            ],
            "hiddenByDefault": false
        },
        {
            "id": "4036693596471992168",
            "name": "Prénom",
            "internalName": "firstname",
            "type": "string",
            "control": "text",
            "kind": "user",
            "size": "medium",
            "required": false,
            "hasValuesList": false,
            "hiddenByDefault": false
        },
        {
            "id": "4036693611504377704",
            "name": "Nom",
            "internalName": "lastname",
            "type": "string",
            "control": "text",
            "kind": "user",
            "size": "large",
            "required": false,
            "hasValuesList": false,
            "hiddenByDefault": false
        },
        {
            "id": "4036693599693217640",
            "name": "Date de naissance",
            "internalName": "birthday",
            "type": "date",
            "control": "text",
            "kind": "user",
            "required": false,
            "hasValuesList": false,
            "hiddenByDefault": false
        },
        {
            "id": "4036693599961653096",
            "name": "Pièce d\"identité",
            "internalName": "idattachment",
            "type": "url",
            "control": "text",
            "kind": "user",
            "required": false,
            "hasValuesList": false,
            "hiddenByDefault": false
        },
        {
            "id": "4036693603719749480",
            "name": "Mail de la structure",
            "internalName": "mailpro",
            "type": "string",
            "control": "text",
            "kind": "user",
            "size": "large",
            "required": false,
            "hasValuesList": false,
            "hiddenByDefault": false
        },
        {
            "id": "4036693600230088552",
            "name": "Description",
            "internalName": "aboutMe",
            "type": "text",
            "control": "textarea",
            "kind": "user",
            "required": false,
            "hasValuesList": false,
            "hiddenByDefault": false
        },
        {
            "id": "4036693600766959464",
            "name": "Site internet",
            "internalName": "website",
            "type": "url",
            "control": "text",
            "kind": "user",
            "required": false,
            "hasValuesList": false,
            "hiddenByDefault": false
        },
        {
            "id": "4036693597008863080",
            "name": "Mots clés",
            "internalName": "keywords",
            "type": "string",
            "control": "text",
            "kind": "user",
            "informationText": "Liste de mots clés",
            "size": "large",
            "required": false,
            "hasValuesList": false,
            "hiddenByDefault": false
        },
        {
            "id": "4036693602377572200",
            "name": "Je souhaites être informé des actualités",
            "internalName": "optinnewsletter",
            "type": "boolean",
            "control": "checkbox",
            "kind": "user",
            "required": false,
            "defaultValue": "true",
            "hasValuesList": false,
            "hiddenByDefault": false
        },
        {
            "id": "4036693600498524008",
            "name": "Commentaire",
            "internalName": "comment",
            "type": "text",
            "control": "textarea",
            "kind": "user",
            "required": false,
            "hasValuesList": false,
            "hiddenByDefault": false
        },
        {
            "id": "4036693597277298536",
            "name": "Catégorie de professionnel",
            "internalName": "catpro",
            "type": "multiSelection",
            "control": "multiSelection",
            "kind": "user",
            "required": false,
            "defaultValue": "",
            "possibleValueCategories": [],
            "hasValuesList": true,
            "possibleValues": [
                {
                    "id": "4036693596471992168",
                    "value": "Bars / Restaurants"
                },
                {
                    "id": "4036693596740427624",
                    "value": "Santé / Services / Artisans"
                },
                {
                    "id": "4036693595935121256",
                    "value": "Loisirs / Culture"
                },
                {
                    "id": "4036693596203556712",
                    "value": "Boutiques / Commerces"
                },
                {
                    "id": "4036693595398250344",
                    "value": "BTP / Construction / Energie / Transport"
                },
                {
                    "id": "4036693595666685800",
                    "value": "Informatique / Web / Télécom"
                },
                {
                    "id": "4036693599156346728",
                    "value": "Conseil / Formation / Ressources humaines"
                },
                {
                    "id": "4036693599424782184",
                    "value": "Gestion / Finances / Comptabilité"
                },
                {
                    "id": "4036693598619475816",
                    "value": "Autres services aux professionnels"
                },
                {
                    "id": "4036693598887911272",
                    "value": "Industrie / Manufacture / Distributeur"
                },
                {
                    "id": "4036693598082604904",
                    "value": "Producteur / Agriculture / Agroalimentaire"
                },
                {
                    "id": "4036693598351040360",
                    "value": "Communication / Évènementiel"
                },
                {
                    "id": "4036693597545733992",
                    "value": "Immobilier / Architecture"
                },
                {
                    "id": "4036693597814169448",
                    "value": "Réseaux"
                },
                {
                    "id": "4036693612041248616",
                    "value": "Professionnel"
                },
                {
                    "id": "4036693612309684072",
                    "value": "Aucune categorie"
                }
            ],
            "hiddenByDefault": false
        },
        {
            "id": "4036693595935121256",
            "name": "Je souhaite adhérer à l\"association",
            "internalName": "membershipsonantaise",
            "type": "boolean",
            "control": "checkbox",
            "kind": "user",
            "required": false,
            "defaultValue": "false",
            "hasValuesList": false,
            "hiddenByDefault": false
        },
        {
            "id": "4036693599156346728",
            "name": "Informations commerciales",
            "internalName": "commercialinfo",
            "type": "boolean",
            "control": "checkbox",
            "kind": "user",
            "required": false,
            "defaultValue": "false",
            "hasValuesList": false,
            "hiddenByDefault": false
        },
        {
            "id": "4036693595666685800",
            "name": "Email validé",
            "internalName": "validatedemail",
            "type": "boolean",
            "control": "checkbox",
            "kind": "user",
            "required": false,
            "defaultValue": "true",
            "hasValuesList": false,
            "hiddenByDefault": false
        },
        {
            "id": "4036693598619475816",
            "name": "Est actif",
            "internalName": "isactive",
            "type": "boolean",
            "control": "checkbox",
            "kind": "user",
            "informationText": "L\"utilisateur est-il actif ou une opposition a t-elle été faite ?",
            "required": false,
            "defaultValue": "false",
            "hasValuesList": false,
            "hiddenByDefault": false
        },
        {
            "id": "4036693612309684072",
            "name": "En attente de validation",
            "internalName": "needsValidation",
            "type": "boolean",
            "control": "checkbox",
            "kind": "user",
            "informationText": "Empêche la connexion des pro",
            "required": false,
            "defaultValue": "true",
            "hasValuesList": false,
            "hiddenByDefault": false
        },
        {
            "id": "4036693611772813160",
            "name": "Compte bloqué",
            "internalName": "accountlock",
            "type": "boolean",
            "control": "checkbox",
            "kind": "user",
            "required": false,
            "defaultValue": "false",
            "hasValuesList": false,
            "hiddenByDefault": false
        },
        {
            "id": "4036693610967506792",
            "name": "Souhaite quitter",
            "internalName": "leavecall",
            "type": "boolean",
            "control": "checkbox",
            "kind": "user",
            "required": false,
            "defaultValue": "false",
            "hasValuesList": false,
            "hiddenByDefault": false
        },
        {
            "id": "4036693612041248616",
            "name": "Id lemonway",
            "internalName": "lemonwayId",
            "type": "string",
            "control": "text",
            "kind": "user",
            "size": "large",
            "required": false,
            "hasValuesList": false,
            "hiddenByDefault": false
        },
        {
            "id": "4036693610699071336",
            "name": "Favoris",
            "internalName": "favorites",
            "type": "string",
            "control": "text",
            "kind": "user",
            "size": "full",
            "required": false,
            "hasValuesList": false,
            "hiddenByDefault": false
        }
    ],
    "binaryValues": {
        "fileValues": {},
        "imageValues": {}
    },
    "details": {
        "id": "4036693601572265899",
        "display": "Bruce Wayne",
        "shortDisplay": "964501",
        "image": {
            "id": "4036693469233586024",
            "name": "Capture d’écran 2018-04-25 à 08.33.53",
            "contentType": "image/png",
            "length": 260908,
            "url": "https://cyclos.nantes.somoney.pro/api/images/content/FYgqFhHdq8xLsLPTSjBKzYdsXXW1xlvGEZykyzAaM04ZvxuesIL8KaI4XfymaTFg_345x397.png",
            "width": 345,
            "height": 397
        }
    },
    "user": {
        "name": "Bruce Wayne",
        "username": "964501",
        "email": "part@mail.com",
        "customValues": {
            "birthday": "2000-03-13T00:00:00.000+01:00",
            "favorites": "4036691750709796712,4036691762789392232",
            "firstname": "Bruce",
            "website": "",
            "gender": "man",
            "keywords": "",
            "needsValidation": "false",
            "isactive": "true",
            "lemonwayId": "78fe-b49e-939a-1f9e",
            "catpro": "",
            "validatedemail": "true",
            "lastname": "Wayne",
            "commercialinfo": "true",
            "aboutMe": "",
            "mailpro": "",
            "optinnewsletter": "true",
            "accountlock": "false",
            "idattachment": "https://moncompte.nantes.somoney.pro/legal_documents/4036691768158101352/idattachment.jpg",
            "comment": "",
            "membershipsonantaise": "false",
            "leavecall": "false"
        },
        "hiddenFields": [
            "email"
        ],
        "version": 6
    }
}